[gd_scene load_steps=2 format=2]

[ext_resource path="res://code/mapping/CamArea.gd" type="Script" id=1]


[node name="CamArea" type="Area2D"]
collision_layer = 0
script = ExtResource( 1 )

[node name="Collision" type="CollisionPolygon2D" parent="."]
z_index = -1
z_as_relative = false

[node name="Cam_Center" type="Position2D" parent="."]

[node name="placement_hinter" type="Camera2D" parent="Cam_Center"]
z_index = 1000
z_as_relative = false
[connection signal="body_entered" from="." to="." method="_on_CamArea_body_entered"]
[connection signal="body_exited" from="." to="." method="_on_CamArea_body_exited"]
