[gd_scene load_steps=4 format=2]

[ext_resource path="res://code/mapping/Checkpoint.gd" type="Script" id=1]
[ext_resource path="res://graphix/tiles/level_templating.png" type="Texture" id=2]


[sub_resource type="CircleShape2D" id=1]
radius = 16.0

[node name="Checkpoint" type="Area2D"]
collision_layer = 0
script = ExtResource( 1 )

[node name="Player_Collision" type="CollisionShape2D" parent="."]
shape = SubResource( 1 )

[node name="Particles" type="CPUParticles2D" parent="."]
rotation = -1.57079
emitting = false
amount = 50
lifetime = 0.8
explosiveness = 0.1
randomness = 0.64
emission_shape = 1
emission_sphere_radius = 7.0
spread = 180.0
gravity = Vector2( 14, 0 )
initial_velocity = 14.0
initial_velocity_random = 0.65
damping = 10.0
color = Color( 0.964706, 0.839216, 0.741176, 1 )
hue_variation = 0.01
hue_variation_random = 1.0

[node name="Sprite" type="Sprite" parent="."]
texture = ExtResource( 2 )
region_enabled = true
region_rect = Rect2( 0, 32, 16, 16 )

[node name="AnimationPlayer" type="AnimationPlayer" parent="."]
[connection signal="body_entered" from="." to="." method="_on_Checkpoint_body_entered"]
